…
    ## Warning: 11045 parsing failures.
    ## row col expected actual
    ##   1  -- a number      .
    ##   2  -- a number      .
    ##   3  -- a number      .
    ##   4  -- a number      .
    ##   5  -- a number      .
    ## ... ... ........ ......
    ## See problems(...) for more details.

``` r
df %>% distinct(variable)
```

    ## # A tibble: 80 x 1
    ##    variable                       
    ##    <chr>                          
    ##  1 Population                     
    ##  2 Real GDP                       
    ##  3 nominal GDP                    
    ##  4 Length of Railway line open    
    ##  5 Freight traffic on railways-1  
    ##  6 Freight traffic on railways-2  
    ##  7 Passenger traffic on railways-1
    ##  8 Passenger traffic on railways-2
    ##  9 Energy output                  
    ## 10 Phones                         
    ## # ... with 70 more rows
…
``` r
df %>%
    filter(variable %in% c("Constraint on Executive", "Protection for capital", "Population")) %>%
    pivot_wider(names_from = variable) %>%
    rowwise() %>%
    mutate(across(-c(year, country, Population), .fns = ~ .x / Population)) %>% arrange(desc(year))
```

    ## # A tibble: 4,922 x 4
    ## # Rowwise: 
    ##     year country   Population `Constraint on Executive`
    ##    <int> <chr>          <dbl>                     <dbl>
    ##  1  2001 Australia         NA                        NA
    ##  2  2001 Austria           NA                        NA
    ##  3  2001 Belgium           NA                        NA
    ##  4  2001 Canada            NA                        NA
    ##  5  2001 Denmark           NA                        NA
    ##  6  2001 Finland           NA                        NA
    ##  7  2001 France            NA                        NA
    ##  8  2001 Germany           NA                        NA
    ##  9  2001 Greece            NA                        NA
    ## 10  2001 Iceland           NA                        NA
    ## # ... with 4,912 more rows

### What about doing t-SNE or UMAP on the different technologies and then doing a dot plot by country and year

``` r
df
```

    ## # A tibble: 398,272 x 4
    ##    variable    year country   value
    ##    <chr>      <int> <chr>     <dbl>
    ##  1 Population  1788 Australia    NA
    ##  2 Population  1788 Austria      NA
    ##  3 Population  1788 Belgium      NA
    ##  4 Population  1788 Canada       NA
    ##  5 Population  1788 Denmark      NA
    ##  6 Population  1788 Finland      NA
    ##  7 Population  1788 France       NA
    ##  8 Population  1788 Germany      NA
    ##  9 Population  1788 Greece       NA
    ## 10 Population  1788 Iceland      NA
    ## # ... with 398,262 more rows
…
corrs <- df_juiced %>% 
  select(-c(year, country)) %>%
  correlate() %>% 
  rearrange()
```

    ## 
    ## Correlation method: 'pearson'
    ## Missing treated using: 'pairwise.complete.obs'

``` r
corrs
```

    ## # A tibble: 25 x 26
    ##    term    private_cars energy_output commercial_cars   mail phones aviation_pkm
    ##    <chr>          <dbl>         <dbl>           <dbl>  <dbl>  <dbl>        <dbl>
    ##  1 privat~       NA             0.943           0.842  0.867  0.904        0.811
    ##  2 energy~        0.943        NA               0.812  0.797  0.943        0.801
    ##  3 commer~        0.842         0.812          NA      0.954  0.742        0.965
    ##  4 mail           0.867         0.797           0.954 NA      0.733        0.915
    ##  5 phones         0.904         0.943           0.742  0.733 NA            0.728
    ##  6 aviati~        0.811         0.801           0.965  0.915  0.728       NA    
    ##  7 aviati~        0.729         0.709           0.784  0.786  0.663        0.842
    ##  8 popula~        0.804         0.768           0.679  0.765  0.756        0.593
    ##  9 freigh~        0.643         0.536           0.637  0.763  0.500        0.535
    ## 10 steel_~        0.551         0.562           0.386  0.409  0.610        0.316
    ## # ... with 15 more rows, and 19 more variables: aviation_tkm <dbl>,
    ## #   population <dbl>, freight_traffic_on_railways_1 <dbl>, steel_total <dbl>,
    ## #   length_of_railway_line_open <dbl>, newspapers <dbl>, radios <dbl>,
    ## #   industrial_robots <dbl>, mobile_phones <dbl>, telegraph <dbl>,
    ## #   real_gdp <dbl>, passenger_traffic_on_railways_1 <dbl>,
    ## #   number_of_ships_all <dbl>, exports_1 <dbl>, imports_1 <dbl>,
    ## #   secondary_enrollment <dbl>, tonnage_motorships <dbl>, ...
…
